module solution/acp-adapter

go 1.12

require (
	github.com/Joker/jade v1.0.0 // indirect
	github.com/Shopify/goreferrer v0.0.0-20181106222321-ec9c9a553398 // indirect
	github.com/aymerick/raymond v2.0.2+incompatible // indirect
	github.com/btcsuite/btcutil v1.0.1 // indirect
	github.com/eknkc/amber v0.0.0-20171010120322-cdade1c07385 // indirect
	github.com/fatih/structs v1.1.0 // indirect
	github.com/flosch/pongo2 v0.0.0-20190707114632-bbf5a6c351f4 // indirect
	github.com/gorilla/schema v1.1.0 // indirect
	github.com/iris-contrib/blackfriday v2.0.0+incompatible // indirect
	github.com/iris-contrib/formBinder v5.0.0+incompatible // indirect
	github.com/iris-contrib/go.uuid v2.0.0+incompatible // indirect
	github.com/json-iterator/go v1.1.9 // indirect
	github.com/kataras/golog v0.0.10 // indirect
	github.com/kataras/iris v11.1.1+incompatible
	github.com/klauspost/compress v1.9.8 // indirect
	github.com/microcosm-cc/bluemonday v1.0.2 // indirect
	github.com/ryanuber/columnize v2.1.0+incompatible // indirect
	github.com/shurcooL/sanitized_anchor_name v1.0.0 // indirect
	github.com/sirupsen/logrus v1.4.2
	github.com/spf13/viper v1.6.2
	github.com/wonderivan/logger v1.0.0
	golang.org/x/crypto v0.0.0-20200204104054-c9f3fb736b72 // indirect
	gopkg.in/yaml.v2 v2.2.8 // indirect
	k8s.io/api v0.17.2
	k8s.io/apimachinery v0.17.2
	sigs.k8s.io/controller-runtime v0.4.0 // indirect
)
